A Pipeline Toolkit for Reproducible Computation at Scale • rOpenSci: drake
…
So far, we have just been setting the stage. Use make() or r_make() to do the real work. Targets are built in the correct order regardless of the row order of plan.

make(plan) # See also r_make().
#> ▶ target raw_data
#> ▶ target data
#> ▶ target fit
#> ▶ target hist
#> ▶ target report

Except for files like report.html, your output is stored in a hidden .drake/ folder. Reading it back is easy.

readd(data) # See also loadd().
#> # A tibble: 153 x 6
#>    Ozone Solar.R  Wind  Temp Month   Day
#>    <dbl>   <dbl> <dbl> <dbl> <dbl> <dbl>
#>  1  41       190   7.4    67     5     1
#>  2  36       118   8      72     5     2
#>  3  12       149  12.6    74     5     3
#>  4  18       313  11.5    62     5     4
#>  5  42.1      NA  14.3    56     5     5
#>  6  28        NA  14.9    66     5     6
#>  7  23       299   8.6    65     5     7
#>  8  19        99  13.8    59     5     8
#>  9   8        19  20.1    61     5     9
#> 10  42.1     194   8.6    69     5    10
#> # … with 143 more rows
…
